OUCRU introduction to Medical Statisitcs – Advance R topics
…
rownames_to_column(mtcars, var = "model") |> as_tibble()

# A tibble: 32 × 12
   model         mpg   cyl  disp    hp  drat    wt  qsec    vs    am  gear  carb
   <chr>       <dbl> <dbl> <dbl> <dbl> <dbl> <dbl> <dbl> <dbl> <dbl> <dbl> <dbl>
 1 Mazda RX4    21       6  160    110  3.9   2.62  16.5     0     1     4     4
 2 Mazda RX4 …  21       6  160    110  3.9   2.88  17.0     0     1     4     4
 3 Datsun 710   22.8     4  108     93  3.85  2.32  18.6     1     1     4     1
 4 Hornet 4 D…  21.4     6  258    110  3.08  3.22  19.4     1     0     3     1
 5 Hornet Spo…  18.7     8  360    175  3.15  3.44  17.0     0     0     3     2
 6 Valiant      18.1     6  225    105  2.76  3.46  20.2     1     0     3     1
 7 Duster 360   14.3     8  360    245  3.21  3.57  15.8     0     0     3     4
 8 Merc 240D    24.4     4  147.    62  3.69  3.19  20       1     0     4     2
 9 Merc 230     22.8     4  141.    95  3.92  3.15  22.9     1     0     4     2
10 Merc 280     19.2     6  168.   123  3.92  3.44  18.3     1     0     4     4
# ℹ 22 more rows
…
# install.packages("tidyverse")
library(tidyverse)

covid_cases <- read_csv("data/covid_cases.csv")

# check if `covid_cases` is a tibble
# (`read_csv()` is part of the `tidyverse` so it automatically converts the dataset into a `tibble`)
is_tibble(covid_cases)

[1] TRUE

covid_cases

# A tibble: 92 × 211
   date       cases_chn cases_kor cases_aus cases_jpn cases_mys cases_phl
   <date>         <dbl>     <dbl>     <dbl>     <dbl>     <dbl>     <dbl>
 1 2020-01-20         0         0         0         0         0         0
 2 2020-01-21        31         0         0         0         0         0
 3 2020-01-23       262         0         0         0         0         0
 4 2020-01-24       259         1         0         0         0         0
 5 2020-01-25       467         0         3         2         0         0
 6 2020-01-26       688         0         1         0         3         0
 7 2020-01-27       776         2         0         1         1         0
 8 2020-01-28      1776         0         1         2         0         0
 9 2020-01-29      1460         0         2         1         0         0
10 2020-01-30      1739         0         0         4         3         1
# ℹ 82 more rows
# ℹ 204 more variables: cases_sgp <dbl>, cases_nzl <dbl>, cases_vnm <dbl>,
#   cases_brn <dbl>, cases_khm <dbl>, cases_mng <dbl>, cases_fji <dbl>,
#   cases_lao <dbl>, cases_png <dbl>, cases_gum <dbl>, cases_pyf <dbl>,
#   cases_ncl <dbl>, cases_mnp <dbl>, cases_idn <dbl>, cases_tha <dbl>,
#   cases_ind <dbl>, cases_lka <dbl>, cases_mdv <dbl>, cases_bgd <dbl>,
#   cases_btn <dbl>, cases_npl <dbl>, cases_mmr <dbl>, cases_tls <dbl>, …
…
Pivot tibbles

Does this data follow the tidy data principle?

covid_cases

# A tibble: 92 × 211
   date       cases_chn cases_kor cases_aus cases_jpn cases_mys cases_phl
   <date>         <dbl>     <dbl>     <dbl>     <dbl>     <dbl>     <dbl>
 1 2020-01-20         0         0         0         0         0         0
 2 2020-01-21        31         0         0         0         0         0
 3 2020-01-23       262         0         0         0         0         0
 4 2020-01-24       259         1         0         0         0         0
 5 2020-01-25       467         0         3         2         0         0
 6 2020-01-26       688         0         1         0         3         0
 7 2020-01-27       776         2         0         1         1         0
 8 2020-01-28      1776         0         1         2         0         0
 9 2020-01-29      1460         0         2         1         0         0
10 2020-01-30      1739         0         0         4         3         1
# ℹ 82 more rows
# ℹ 204 more variables: cases_sgp <dbl>, cases_nzl <dbl>, cases_vnm <dbl>,
#   cases_brn <dbl>, cases_khm <dbl>, cases_mng <dbl>, cases_fji <dbl>,
#   cases_lao <dbl>, cases_png <dbl>, cases_gum <dbl>, cases_pyf <dbl>,
#   cases_ncl <dbl>, cases_mnp <dbl>, cases_idn <dbl>, cases_tha <dbl>,
#   cases_ind <dbl>, cases_lka <dbl>, cases_mdv <dbl>, cases_bgd <dbl>,
#   cases_btn <dbl>, cases_npl <dbl>, cases_mmr <dbl>, cases_tls <dbl>, …
…
Pivot tibbles

Let’s use pivot_longer() to turn our data into tidy data

covid_cases <- covid_cases |> 
  pivot_longer(
    cols = -date,
    names_to = "country", 
    names_pattern = "cases_(.+)",
    values_to = "cases"
  )
covid_cases

# A tibble: 19,320 × 3
   date       country cases
   <date>     <chr>   <dbl>
 1 2020-01-20 chn         0
 2 2020-01-20 kor         0
 3 2020-01-20 aus         0
 4 2020-01-20 jpn         0
 5 2020-01-20 mys         0
 6 2020-01-20 phl         0
 7 2020-01-20 sgp         0
 8 2020-01-20 nzl         0
 9 2020-01-20 vnm         0
10 2020-01-20 brn         0
# ℹ 19,310 more rows
…
Make your decision:

Remove rows with NAs

Data imputation, i.e. replace the NAs with something that makes sense like mean, mode, median, interpolation,…

Something else?

Handling NAs

Remove rows with NAs using drop_na()

covid_cases |> drop_na()

# A tibble: 19,307 × 3
   date       country cases
   <date>     <chr>   <dbl>
 1 2020-01-20 chn         0
 2 2020-01-20 kor         0
 3 2020-01-20 aus         0
 4 2020-01-20 jpn         0
 5 2020-01-20 mys         0
 6 2020-01-20 phl         0
 7 2020-01-20 sgp         0
 8 2020-01-20 nzl         0
 9 2020-01-20 vnm         0
10 2020-01-20 brn         0
# ℹ 19,297 more rows

Handling NAs

You can further specify the column to drop NAs from

covid_cases |> drop_na(cases)

# A tibble: 19,307 × 3
   date       country cases
   <date>     <chr>   <dbl>
 1 2020-01-20 chn         0
 2 2020-01-20 kor         0
 3 2020-01-20 aus         0
 4 2020-01-20 jpn         0
 5 2020-01-20 mys         0
 6 2020-01-20 phl         0
 7 2020-01-20 sgp         0
 8 2020-01-20 nzl         0
 9 2020-01-20 vnm         0
10 2020-01-20 brn         0
# ℹ 19,297 more rows
…
Select columns

You can select columns from a tibble with select()

covid_cases |> select(country, cases)

# A tibble: 19,320 × 2
   country cases
   <chr>   <dbl>
 1 chn         0
 2 kor         0
 3 aus         0
 4 jpn         0
 5 mys         0
 6 phl         0
 7 sgp         0
 8 nzl         0
 9 vnm         0
10 brn         0
# ℹ 19,310 more rows

Select columns

You can unselect columns with the - operator

covid_cases |>
  select(-country)

# A tibble: 19,320 × 2
   date       cases
   <date>     <dbl>
 1 2020-01-20     0
 2 2020-01-20     0
 3 2020-01-20     0
 4 2020-01-20     0
 5 2020-01-20     0
 6 2020-01-20     0
 7 2020-01-20     0
 8 2020-01-20     0
 9 2020-01-20     0
10 2020-01-20     0
# ℹ 19,310 more rows

covid_cases |>
  select(-cases)

# A tibble: 19,320 × 2
   date       country
   <date>     <chr>  
 1 2020-01-20 chn    
 2 2020-01-20 kor    
 3 2020-01-20 aus    
 4 2020-01-20 jpn    
 5 2020-01-20 mys    
 6 2020-01-20 phl    
 7 2020-01-20 sgp    
 8 2020-01-20 nzl    
 9 2020-01-20 vnm    
10 2020-01-20 brn    
# ℹ 19,310 more rows
…
You can create new columns or modify existing columns with mutate()

Example: modify columns to their correct data type and create a new column for year of birth

titanic_df |>
  select(pclass, survived, sex, age) |>
  mutate(
    pclass = as.factor(pclass),
    survived = as.factor(survived),
    sex = as.factor(sex),
    age = as.numeric(age),
    yob = 1912 - age
  )

# A tibble: 1,309 × 5
   pclass survived sex       age   yob
   <fct>  <fct>    <fct>   <dbl> <dbl>
 1 1st    1        female 29     1883 
 2 1st    1        male    0.917 1911.
 3 1st    0        female  2     1910 
 4 1st    0        male   30     1882 
 5 1st    0        female 25     1887 
 6 1st    1        male   48     1864 
 7 1st    1        female 63     1849 
 8 1st    0        male   39     1873 
 9 1st    1        female 53     1859 
10 1st    0        male   71     1841 
# ℹ 1,299 more rows
…
You can also work on the same column multiple times in one mutate(), the modifications will be run sequentially

titanic_df |>
  select(pclass, survived, sex, age) |>
  mutate(
    pclass = as.factor(pclass),
    survived = as.factor(survived),
    sex = as.factor(sex),
    age = as.numeric(age),
    age = round(age),
    yob = 1912 - age
  )

# A tibble: 1,309 × 5
   pclass survived sex      age   yob
   <fct>  <fct>    <fct>  <dbl> <dbl>
 1 1st    1        female    29  1883
 2 1st    1        male       1  1911
 3 1st    0        female     2  1910
 4 1st    0        male      30  1882
 5 1st    0        female    25  1887
 6 1st    1        male      48  1864
 7 1st    1        female    63  1849
 8 1st    0        male      39  1873
 9 1st    1        female    53  1859
10 1st    0        male      71  1841
# ℹ 1,299 more rows

Create and/or modify columns

To run the same function for multiple columns, you can use across()

titanic_df |>
  select(pclass, survived, sex, age) |>
  mutate(
    across(c(pclass, survived, sex), as.factor),
    age = as.numeric(age),
    age = round(age),
    yob = 1912 - age
  )

# A tibble: 1,309 × 5
   pclass survived sex      age   yob
   <fct>  <fct>    <fct>  <dbl> <dbl>
 1 1st    1        female    29  1883
 2 1st    1        male       1  1911
 3 1st    0        female     2  1910
 4 1st    0        male      30  1882
 5 1st    0        female    25  1887
 6 1st    1        male      48  1864
 7 1st    1        female    63  1849
 8 1st    0        male      39  1873
 9 1st    1        female    53  1859
10 1st    0        male      71  1841
# ℹ 1,299 more rows

Create and/or modify columns

To simply rename columns, you can use rename()

titanic_df |> rename(passenger_class = pclass)

# A tibble: 1,309 × 17
   passenger_class survived name      sex   age   sibsp parch ticket  fare cabin
   <chr>              <dbl> <chr>     <chr> <chr> <dbl> <dbl> <chr>  <dbl> <chr>
 1 1st                    1 Allen, M… fema… 29        0     0 24160  211.  B5   
 2 1st                    1 Allison,… male  0.91…     1     2 113781 152.  C22 …
 3 1st                    0 Allison,… fema… 2         1     2 113781 152.  C22 …
 4 1st                    0 Allison,… male  30        1     2 113781 152.  C22 …
 5 1st                    0 Allison,… fema… 25        1     2 113781 152.  C22 …
 6 1st                    1 Anderson… male  48        0     0 19952   26.5 E12  
 7 1st                    1 Andrews,… fema… 63        1     0 13502   78.0 D7   
 8 1st                    0 Andrews,… male  39        0     0 112050   0   A36  
 9 1st                    1 Appleton… fema… 53        2     0 11769   51.5 C101 
10 1st                    0 Artagave… male  71        0     0 PC 17…  49.5 <NA> 
# ℹ 1,299 more rows
# ℹ 7 more variables: embarked <chr>, boat <chr>, body <chr>, home_dest <chr>,
#   dob <chr>, family <chr>, agecat <chr>
…
Make sure the key columns exist on both tibbles

Joining

For our example, we will do a left join, where the original tibble is the left, and the passenger class name tibble is on the right

titanic_df |> 
  select(pclass, name) |> 
  left_join(
    pclass_names,
    by = "pclass"
  )

# A tibble: 1,309 × 3
   pclass name.x                          name.y     
   <chr>  <chr>                           <chr>      
 1 1st    Allen, Miss. Elisabeth Walton   First class
 2 1st    Allison, Master. Hudson Trevor  First class
 3 1st    Allison, Miss. Helen Loraine    First class
 4 1st    Allison, Mr. Hudson Joshua Crei First class
 5 1st    Allison, Mrs. Hudson J C (Bessi First class
 6 1st    Anderson, Mr. Harry             First class
 7 1st    Andrews, Miss. Kornelia Theodos First class
 8 1st    Andrews, Mr. Thomas Jr          First class
 9 1st    Appleton, Mrs. Edward Dale (Cha First class
10 1st    Artagaveytia, Mr. Ramon         First class
# ℹ 1,299 more rows
…
