OUCRU introduction to Medical Statistics – Principles of Data Visualisation
…
The annotate() layer

I lied

Aesthetics are always dependant on the dataset, whether it is outside or inside aes()

The annotate() layer

Example:

Originally the dataset when used in ggplot() looks like this:

ggplot(aggregated_cases, ...) + ...

# A tibble: 257 × 2
   date_onset case_count
   <date>          <int>
 1 2023-01-01          1
 2 2023-01-03          1
 3 2023-01-04          1
 4 2023-01-05          1
 5 2023-01-06          3
 6 2023-01-07          3
 7 2023-01-08          1
 8 2023-01-09          1
 9 2023-01-10          2
10 2023-01-14          1
# ℹ 247 more rows

When you assigned a fixed value to an aesthetic outside of aes(), it might look like this:

ggplot(aggregated_cases, ...) + geom_...(alpha = 0.2)

# A tibble: 257 × 3
   date_onset case_count alpha
   <date>          <int> <dbl>
 1 2023-01-01          1   0.2
 2 2023-01-03          1   0.2
 3 2023-01-04          1   0.2
 4 2023-01-05          1   0.2
 5 2023-01-06          3   0.2
 6 2023-01-07          3   0.2
 7 2023-01-08          1   0.2
 8 2023-01-09          1   0.2
 9 2023-01-10          2   0.2
10 2023-01-14          1   0.2
# ℹ 247 more rows
…
